time,temperature_from_humidity,temperature_from_pressure,humidity,pressure,cam_revision,analog_gain,digital_gain,exposure_speed,cpu_temperature,average_temperature,calibrated_temperature,calibrated_humidity,dewpoint,light
2018-04-27T08:02:26.841374,30.547727584838867,27.125,36.6565055847168,1001.293212890625,ov5647,117/16,71/64,62997,36.3,28.836363792419434,21.576363792419436,62.5966129853815,14.101808722895242,6.410670149614207
2018-04-27T08:02:32.082159,30.709999084472656,27.129165649414062,36.97184753417969,1001.341064453125,ov5647,29/4,139/128,62997,35.8,28.91958236694336,21.75958236694336,63.01415003869902,14.378820436354559,6.6054870916454
2018-04-27T08:02:39.594648,30.601818084716797,27.133333206176758,36.233665466308594,1001.30078125,ov5647,115/16,35/32,62997,35.8,28.867575645446777,21.707575645446777,61.57650444623503,13.971774139156409,6.615333780477666
2018-04-27T08:02:44.834701,30.601818084716797,27.141666412353516,36.61350631713867,1001.3115234375,ov5647,115/16,35/32,62997,35.8,28.871742248535156,21.711742248535156,62.20149735256517,14.132101949300619,6.615333780477666
2018-04-27T08:02:52.347484,30.619848251342773,27.145832061767578,36.72459030151367,1001.340087890625,ov5647,29/4,69/64,62997,35.8,28.882840156555176,21.722840156555176,62.411377676076064,14.194834894103977,6.653352940135584
2018-04-27T08:02:59.858774,30.565757751464844,27.15416717529297,36.09391403198242,1001.322998046875,ov5647,115/16,139/128,62997,36.3,28.859962463378906,21.59996246337891,61.617850770962754,13.880237174822511,6.662926109833622
2018-04-27T08:03:05.094738,30.493637084960938,27.162500381469727,36.2408332824707,1001.330322265625,ov5647,115/16,139/128,62997,36.3,28.828068733215332,21.568068733215334,61.73033969295621,13.878233424861534,6.662926109833622
2018-04-27T08:03:12.601089,30.65591049194336,27.172916412353516,36.4737548828125,1001.292236328125,ov5647,31/4,1,62997,36.3,28.914413452148438,21.65441345214844,62.37786523636032,14.121609889107205,6.710362516739568
2018-04-27T08:03:20.098705,30.619848251342773,27.1875,36.3519172668457,1001.351318359375,ov5647,63/8,1,62997,35.8,28.903674125671387,21.743674125671387,61.70385634696475,14.037946409246771,6.6038488259976695
2018-04-27T08:03:25.328251,30.65591049194336,27.1875,36.22291564941406,1001.295166015625,ov5647,63/8,353/256,62997,36.9,28.92170524597168,21.54170524597168,62.38105390769329,14.015504306763788,4.789193482876497
2018-04-27T08:03:32.837337,30.782121658325195,27.204166412353516,36.19424819946289,1001.2958984375,ov5647,63/8,389/256,62997,36.9,28.993144035339355,21.613144035339356,62.51301247524695,14.115997326213062,4.345977633561449
2018-04-27T08:03:40.348088,30.673938751220703,27.210416793823242,36.44866943359375,1001.295166015625,ov5647,127/16,135/128,62997,36.3,28.942177772521973,21.682177772521975,62.29415311352553,14.127132615778578,6.2121244599411165
2018-04-27T08:03:45.590478,30.619848251342773,27.210416793823242,36.509586334228516,1001.29296875,ov5647,59/8,17/16,62997,35.8,28.915132522583008,21.755132522583008,61.926137908051224,14.10449314585054,6.636769308679614
2018-04-27T08:03:53.106025,30.709999084472656,27.227083206176758,36.344749450683594,1001.353515625,ov5647,127/16,71/64,62997,36.3,28.968541145324707,21.70854114532471,62.14675062577181,14.115423853276752,5.90589297247923
2018-04-27T08:04:00.615917,30.800151824951172,27.233333587646484,36.405670166015625,1001.3203125,ov5647,127/16,135/128,62997,36.9,29.016742706298828,21.63674270629883,62.84993644270046,14.221711105088644,6.2121244599411165
2018-04-27T08:04:05.858753,30.65591049194336,27.243749618530273,36.73892593383789,1001.3076171875,ov5647,63/8,133/128,62997,36.3,28.949830055236816,21.68983005523682,62.69203056345059,14.233085845553802,6.355583832539112
2018-04-27T08:04:13.371826,30.601818084716797,27.260417938232422,36.79267501831055,1001.287109375,ov5647,115/16,17/16,62997,36.9,28.93111801147461,21.55111801147461,63.121303547407415,14.207223037444948,6.809902421079952
2018-04-27T08:04:20.888216,30.836212158203125,27.264583587646484,36.387752532958984,1001.299560546875,ov5647,115/16,133/128,62997,36.9,29.050397872924805,21.670397872924806,62.82029597992651,14.24634142417527,6.963509242608069
2018-04-27T08:04:26.126912,30.65591049194336,27.274999618530273,35.9290771484375,1001.318359375,ov5647,115/16,133/128,62997,36.9,28.965455055236816,21.585455055236817,61.71312045860892,13.890389145391055,6.963509242608069
2018-04-27T08:04:33.643487,30.673938751220703,27.289583206176758,36.59200668334961,1001.31640625,ov5647,57/8,67/64,62997,36.9,28.98176097869873,21.60176097869873,62.84594958874112,14.187521551546538,6.972170323755592
2018-04-27T08:04:41.156048,30.728031158447266,27.293750762939453,36.36625289916992,1001.304443359375,ov5647,127/16,1,62997,36.9,29.01089096069336,21.63089096069336,62.54445554890671,14.140625942751,6.5518500163441455
2018-04-27T08:04:46.394288,30.728031158447266,27.31041717529297,36.380584716796875,1001.3193359375,ov5647,117/16,69/64,62997,37.4,29.019224166870117,21.539224166870117,62.921127587871794,14.146687474458616,6.596486675689981
2018-04-27T08:04:53.902940,30.872272491455078,27.316665649414062,36.33399963378906,1001.323974609375,ov5647,59/8,17/16,62997,36.9,29.09446907043457,21.71446907043457,62.6892787139574,14.255786766234266,6.636769308679614
2018-04-27T08:05:01.413690,30.76409149169922,27.331249237060547,36.45941925048828,1001.368896484375,ov5647,29/4,17/16,62997,36.9,29.047670364379883,21.667670364379884,62.69263902144616,14.212207379426943,6.751196365725814
2018-04-27T08:05:06.646237,30.836212158203125,27.339584350585938,36.380584716796875,1001.30029296875,ov5647,57/8,69/64,62997,36.9,29.08789825439453,21.707898254394532,62.664050590782395,14.243308522424968,6.7700784303134025
2018-04-27T08:05:14.145570,30.74605941772461,27.350000381469727,36.14766311645508,1001.296630859375,ov5647,57/8,69/64,62997,37.9,29.048029899597168,21.46802989959717,62.859851069960825,14.064005391139489,6.7700784303134025
2018-04-27T08:05:21.643384,30.81818199157715,27.362499237060547,36.59200668334961,1001.289306640625,ov5647,57/8,69/64,62997,36.9,29.090340614318848,21.71034061431885,62.950716446175356,14.316434215411931,6.7700784303134025
2018-04-27T08:05:26.883281,30.872272491455078,27.364582061767578,36.33041763305664,1001.3037109375,ov5647,57/8,69/64,62997,36.9,29.118427276611328,21.73842727661133,62.591336002616295,14.25426887354071,6.7700784303134025
2018-04-27T08:05:34.398354,30.890304565429688,27.375,36.17991638183594,1001.296142578125,ov5647,57/8,69/64,62997,36.9,29.132652282714844,21.752652282714845,62.34442609132205,14.2064698181089,6.7700784303134025
2018-04-27T08:05:41.910076,30.800151824951172,27.393749237060547,36.23725128173828,1001.292724609375,ov5647,115/16,17/16,62997,36.9,29.09695053100586,21.71695053100586,62.25497392362761,14.15035723288507,6.809902421079952
2018-04-27T08:05:47.149929,30.836212158203125,27.393749237060547,36.3125,1001.328125,ov5647,57/8,137/128,62997,36.9,29.114980697631836,21.734980697631837,62.444087021362506,14.214473890911478,6.819495061191601
2018-04-27T08:05:54.663197,30.998485565185547,27.414583206176758,36.3519172668457,1001.2646484375,ov5647,57/8,137/128,62997,36.9,29.206534385681152,21.826534385681153,62.745682733020104,14.37609389359531,6.819495061191601
2018-04-27T08:06:02.175804,30.872272491455078,27.418750762939453,36.262332916259766,1001.27880859375,ov5647,57/8,137/128,62997,36.9,29.145511627197266,21.765511627197267,62.37148056790309,14.22539266865003,6.819495061191601
2018-04-27T08:06:07.416047,30.944393157958984,27.429166793823242,35.71049118041992,1001.298828125,ov5647,57/8,137/128,62997,36.9,29.186779975891113,21.806779975891114,61.52932697865848,14.053859148032174,6.819495061191601
2018-04-27T08:06:14.928338,30.90833282470703,27.441665649414062,36.09391403198242,1001.31201171875,ov5647,57/8,137/128,62997,36.9,29.174999237060547,21.794999237060548,62.100850877388794,14.185936975646158,6.819495061191601
2018-04-27T08:06:22.442238,30.782121658325195,27.443750381469727,36.74967575073242,1001.2880859375,ov5647,57/8,137/128,62997,37.4,29.11293601989746,21.63293601989746,63.3883371515314,14.350441066266214,6.819495061191601
2018-04-27T08:06:27.680354,30.8542423248291,27.458332061767578,36.47733688354492,1001.30322265625,ov5647,57/8,137/128,62997,36.3,29.15628719329834,21.896287193298342,62.17437969619065,14.30031127440975,6.819495061191601
2018-04-27T08:06:35.190269,30.944393157958984,27.462499618530273,36.08674621582031,1001.31689453125,ov5647,57/8,137/128,62997,37.4,29.20344638824463,21.72344638824463,62.49052511648772,14.215059097597916,6.819495061191601
2018-04-27T08:06:42.693943,30.890304565429688,27.475000381469727,36.11183166503906,1001.310302734375,ov5647,57/8,137/128,62997,36.9,29.182652473449707,21.802652473449708,62.03795540637449,14.177485072448391,6.819495061191601
2018-04-27T08:06:47.924170,30.836212158203125,27.481250762939453,36.126163482666016,1001.325927734375,ov5647,57/8,137/128,62997,36.9,29.15873146057129,21.77873146057129,61.959953861595174,14.135315717875628,6.819495061191601
2018-04-27T08:06:55.422300,31.016515731811523,27.479167938232422,36.398502349853516,1001.323974609375,ov5647,57/8,137/128,62997,36.9,29.247841835021973,21.867841835021974,62.732096338734664,14.41193457551688,6.819495061191601
2018-04-27T08:07:02.929867,30.944393157958984,27.5,36.02582931518555,1001.2724609375,ov5647,57/8,137/128,62997,36.9,29.222196578979492,21.842196578979493,61.93436540592536,14.189060385231883,6.819495061191601
2018-04-27T08:07:08.169883,30.962425231933594,27.508333206176758,35.99357986450195,1001.287353515625,ov5647,57/8,137/128,62997,37.4,29.235379219055176,21.755379219055175,62.2733324573527,14.191367176940588,6.819495061191601
2018-04-27T08:07:15.680283,30.980453491210938,27.514583587646484,36.480918884277344,1001.337646484375,ov5647,57/8,137/128,62997,36.9,29.24751853942871,21.867518539428712,62.74403489084159,14.41458266489218,6.819495061191601
2018-04-27T08:07:23.193687,31.0345458984375,27.527084350585938,35.95416259765625,1001.269287109375,ov5647,57/8,137/128,62997,36.9,29.28081512451172,21.90081512451172,61.911308411780716,14.238838405991771,6.819495061191601
2018-04-27T08:07:28.437923,31.070606231689453,27.524999618530273,35.8179931640625,1001.31005859375,ov5647,57/8,137/128,62997,36.9,29.297802925109863,21.917802925109864,61.74248733172306,14.212599009294863,6.819495061191601
2018-04-27T08:07:35.952142,30.944393157958984,27.539583206176758,35.886077880859375,1001.278076171875,ov5647,57/8,137/128,62997,36.9,29.24198818206787,21.861988182067872,61.62126209719664,14.129270240746479,6.819495061191601
2018-04-27T08:07:43.465874,30.962425231933594,27.552082061767578,36.05091094970703,1001.325439453125,ov5647,57/8,137/128,62997,36.9,29.257253646850586,21.877253646850587,61.90870508250798,14.215858572902235,6.819495061191601
2018-04-27T08:07:48.707274,31.052576065063477,27.554166793823242,36.37700271606445,1001.300048828125,ov5647,57/8,137/128,62997,36.9,29.30337142944336,21.92337142944336,62.612660065414794,14.435034370000793,6.819495061191601
2018-04-27T08:07:56.224873,30.944393157958984,27.572917938232422,36.151248931884766,1001.3115234375,ov5647,57/8,137/128,62997,36.9,29.258655548095703,21.878655548095704,62.01004148025112,14.242546374006622,6.819495061191601
2018-04-27T08:08:03.737228,31.052576065063477,27.575000762939453,36.03657913208008,1001.3544921875,ov5647,57/8,137/128,62997,37.4,29.313788414001465,21.833788414001464,62.37157550961864,14.290172002520649,6.819495061191601
2018-04-27T08:08:08.975388,30.962425231933594,27.583332061767578,35.93624496459961,1001.354736328125,ov5647,57/8,137/128,62997,36.3,29.272878646850586,22.012878646850588,61.20393441782666,14.166839990177067,6.819495061191601
2018-04-27T08:08:16.485974,31.052576065063477,27.59375,36.032997131347656,1001.3134765625,ov5647,57/8,137/128,62997,37.4,29.32316303253174,21.843163032531738,62.329689593423495,14.288641378450563,6.819495061191601
2018-04-27T08:08:23.994047,31.070606231689453,27.597915649414062,36.140499114990234,1001.304443359375,ov5647,57/8,137/128,62997,36.9,29.334260940551758,21.95426094055176,62.15569786922253,14.35061185625996,6.819495061191601
2018-04-27T08:08:29.230056,31.106666564941406,27.604167938232422,35.75707244873047,1001.3076171875,ov5647,57/8,137/128,62997,36.9,29.355417251586914,21.975417251586915,61.5491560327041,14.21855192173635,6.819495061191601
2018-04-27T08:08:36.729970,31.124696731567383,27.620834350585938,35.997161865234375,1001.314208984375,ov5647,57/8,137/128,62997,37.4,29.37276554107666,21.89276554107666,62.33763180922502,14.337659608770878,6.819495061191601
2018-04-27T08:08:44.228823,31.16075897216797,27.62291717529297,36.126163482666016,1001.36376953125,ov5647,57/8,137/128,62997,36.9,29.39183807373047,22.01183807373047,62.23484227434164,14.424956556758616,6.819495061191601
2018-04-27T08:08:49.463508,31.08863639831543,27.62708282470703,36.280250549316406,1001.3486328125,ov5647,57/8,137/128,62997,36.9,29.35785961151123,21.97785961151123,62.36903584388396,14.426181090238359,6.819495061191601
2018-04-27T08:08:56.974168,31.070606231689453,27.639583587646484,35.735572814941406,1001.349853515625,ov5647,57/8,137/128,62997,37.9,29.35509490966797,21.77509490966797,62.141273115011806,14.177153727762928,6.819495061191601
2018-04-27T08:09:04.486916,31.124696731567383,27.643749237060547,35.90399169921875,1001.35595703125,ov5647,57/8,137/128,62997,36.9,29.384222984313965,22.004222984313966,61.75553405761678,14.297746972374995,6.819495061191601
2018-04-27T08:09:09.725994,31.124696731567383,27.647916793823242,36.158416748046875,1001.35546875,ov5647,57/8,137/128,62997,36.9,29.386306762695312,22.006306762695313,62.18201057683495,14.406525554421904,6.819495061191601
2018-04-27T08:09:17.241444,31.124696731567383,27.660415649414062,36.144081115722656,1001.413818359375,ov5647,57/8,137/128,62997,36.9,29.392556190490723,22.012556190490724,62.13382190742928,14.40041423557716,6.819495061191601
2018-04-27T08:09:24.754261,31.070606231689453,27.65833282470703,35.75349044799805,1001.424560546875,ov5647,57/8,137/128,62997,37.4,29.364469528198242,21.88446952819824,61.757805772085106,14.184865375532993,6.819495061191601
2018-04-27T08:09:29.994445,31.178787231445312,27.662500381469727,36.251583099365234,1001.372802734375,ov5647,57/8,137/128,62997,36.9,29.42064380645752,22.04064380645752,62.40419434968456,14.494482519237962,6.819495061191601
2018-04-27T08:09:37.503923,31.16075897216797,27.681249618530273,35.41665267944336,1001.393310546875,ov5647,57/8,137/128,62997,37.4,29.42100429534912,21.94100429534912,61.286124892799556,14.119602777526552,6.819495061191601
2018-04-27T08:09:45.013426,31.106666564941406,27.683334350585938,35.588653564453125,1001.35400390625,ov5647,115/16,135/128,62997,37.9,29.395000457763672,21.815000457763674,61.864998660025016,14.145921031516096,6.860346142717581
2018-04-27T08:09:50.246407,31.178787231445312,27.679166793823242,35.8574104309082,1001.365478515625,ov5647,29/4,133/128,62997,36.9,29.428977012634277,22.04897701263428,61.6992223255026,14.325991212082158,6.903478990516621
2018-04-27T08:09:57.746375,31.08863639831543,27.695833206176758,35.843074798583984,1001.418212890625,ov5647,57/8,135/128,62997,37.9,29.392234802246094,21.812234802246095,62.249913782299956,14.239448252723875,6.920524617653699
2018-04-27T08:10:05.244913,31.070606231689453,27.695833206176758,35.989994049072266,1001.3818359375,ov5647,115/16,133/128,62997,36.9,29.383219718933105,22.003219718933106,61.7139158995048,14.286339563684493,6.963509242608069
2018-04-27T08:10:10.482321,31.178787231445312,27.708332061767578,35.66032409667969,1001.377197265625,ov5647,57/8,67/64,62997,36.9,29.443559646606445,22.063559646606446,61.30797655957583,14.241136965508446,6.972170323755592
2018-04-27T08:10:17.996531,31.106666564941406,27.71875,36.06882858276367,1001.400390625,ov5647,57/8,67/64,62997,36.9,29.412708282470703,22.032708282470704,61.864988758916404,14.352210914229502,6.972170323755592
2018-04-27T08:10:25.510877,31.070606231689453,27.71666717529297,35.352149963378906,1001.380615234375,ov5647,57/8,67/64,62997,37.4,29.39363670349121,21.91363670349121,60.96088811538964,14.011314462348551,6.972170323755592
2018-04-27T08:10:30.750433,31.08863639831543,27.722915649414062,35.742740631103516,1001.3837890625,ov5647,57/8,67/64,62997,36.9,29.405776023864746,22.025776023864747,61.2721523810135,14.196311045588288,6.972170323755592
2018-04-27T08:10:38.263707,31.25090789794922,27.733333587646484,35.91474533081055,1001.473876953125,ov5647,57/8,67/64,62997,36.9,29.49212074279785,22.112120742797853,61.815051971412835,14.41492171044294,6.972170323755592
2018-04-27T08:10:45.779270,31.124696731567383,27.727083206176758,35.67107391357422,1001.41845703125,ov5647,57/8,67/64,62997,37.4,29.42588996887207,21.94588996887207,61.5768867535685,14.197570762218305,6.972170323755592
2018-04-27T08:10:51.018215,31.124696731567383,27.739582061767578,35.886077880859375,1001.422119140625,ov5647,57/8,67/64,62997,36.9,29.43213939666748,22.05213939666748,61.5446047788633,14.29006258819851,6.972170323755592
2018-04-27T08:10:58.532467,31.178787231445312,27.75,35.8574104309082,1001.431884765625,ov5647,57/8,67/64,62997,36.9,29.464393615722656,22.084393615722657,61.565964076405656,14.325991212082158,6.972170323755592
2018-04-27T08:11:06.044283,31.232879638671875,27.75,35.80007553100586,1001.407958984375,ov5647,57/8,67/64,62997,36.9,29.491439819335938,22.11143981933594,61.55790612244568,14.349574269697527,6.972170323755592
2018-04-27T08:11:11.286000,31.124696731567383,27.754165649414062,35.43815231323242,1001.415283203125,ov5647,57/8,67/64,62997,36.9,29.439431190490723,22.059431190490724,60.75494031900508,14.096818906613294,6.972170323755592
2018-04-27T08:11:18.801133,31.232879638671875,27.762500762939453,35.91474533081055,1001.426025390625,ov5647,57/8,67/64,62997,36.9,29.497690200805664,22.117690200805665,61.730077909182135,14.398842921844121,6.972170323755592
2018-04-27T08:11:26.315252,31.14272689819336,27.762500762939453,35.83232498168945,1001.4189453125,ov5647,115/16,33/32,62997,37.9,29.452613830566406,21.872613830566408,62.19520216797939,14.283060753336073,7.016263100506616
2018-04-27T08:11:31.557939,31.25090789794922,27.772916793823242,35.853824615478516,1001.46337890625,ov5647,57/8,133/128,62997,37.4,29.51191234588623,22.03191234588623,62.01385906131023,14.388760851988565,7.024592657016913
2018-04-27T08:11:39.071000,31.268939971923828,27.78125,35.68540573120117,1001.450439453125,ov5647,57/8,133/128,62997,36.9,29.525094985961914,22.145094985961915,61.36327375877521,14.332305462039159,7.024592657016913
2018-04-27T08:11:46.583800,31.232879638671875,27.787500381469727,35.81440734863281,1001.44580078125,ov5647,115/16,131/128,62997,36.9,29.5101900100708,22.1301900100708,61.51194162740858,14.35573957591214,7.069822360815827
2018-04-27T08:11:51.824634,31.214847564697266,27.789583206176758,35.714073181152344,1001.463134765625,ov5647,29/4,129/128,62997,37.4,29.50221538543701,22.02221538543701,61.682596433520644,14.29645988759819,7.117540354563648
2018-04-27T08:11:59.334209,31.232879638671875,27.793750762939453,35.760658264160156,1001.45263671875,ov5647,29/4,129/128,62997,36.9,29.513315200805664,22.133315200805665,61.408590431470756,14.332606481555374,7.117540354563648
2018-04-27T08:12:06.847084,31.25090789794922,27.795833587646484,35.7785758972168,1001.450439453125,ov5647,29/4,129/128,62997,37.4,29.52337074279785,22.04337074279785,61.84139097747998,14.356393450263184,7.117540354563648
2018-04-27T08:12:12.083734,31.232879638671875,27.799999237060547,35.68182373046875,1001.4619140625,ov5647,29/4,129/128,62997,37.4,29.51643943786621,22.03643943786621,61.63763336035518,14.298621752876585,7.117540354563648
2018-04-27T08:12:19.585639,31.30500030517578,27.806249618530273,35.58148956298828,1001.481689453125,ov5647,57/8,131/128,62997,36.9,29.555624961853027,22.17562496185303,61.19865349224442,14.319529061578535,7.131838346437018
2018-04-27T08:12:27.081913,31.286970138549805,27.806249618530273,35.52056884765625,1001.504638671875,ov5647,57/8,131/128,62997,36.9,29.54660987854004,22.16660987854004,61.06498354067247,14.277083779215161,7.131838346437018
2018-04-27T08:12:32.312893,31.196819305419922,27.822917938232422,35.59223937988281,1001.4755859375,ov5647,115/16,129/128,62997,37.4,29.509868621826172,22.02986862182617,61.38138096269664,14.227794251282333,7.179432009820724
2018-04-27T08:12:39.827526,31.30500030517578,27.822917938232422,35.11922836303711,1001.4541015625,ov5647,115/16,129/128,62997,36.9,29.5639591217041,22.183959121704103,60.37868704597994,14.118329537623893,7.179432009820724
2018-04-27T08:12:47.338844,31.25090789794922,27.825000762939453,36.09391403198242,1001.52490234375,ov5647,115/16,129/128,62997,36.9,29.537954330444336,22.157954330444337,61.947674603513235,14.491636776469818,7.179432009820724
2018-04-27T08:12:52.579282,31.196819305419922,27.816665649414062,35.83949279785156,1001.48876953125,ov5647,115/16,129/128,62997,37.4,29.506742477416992,22.02674247741699,61.816425159468224,14.334372225193036,7.179432009820724
2018-04-27T08:13:00.092291,31.232879638671875,27.837499618530273,35.241065979003906,1001.505126953125,ov5647,115/16,129/128,62997,36.9,29.535189628601074,22.155189628601075,60.442094723006214,14.10739636419325,7.179432009820724
2018-04-27T08:13:07.608023,31.232879638671875,27.84166717529297,35.706905364990234,1001.496826171875,ov5647,115/16,129/128,62997,37.4,29.537273406982422,22.05727340698242,61.60222732612433,14.309441298743238,7.179432009820724
2018-04-27T08:13:12.851055,31.30500030517578,27.847915649414062,35.41306686401367,1001.498291015625,ov5647,115/16,129/128,62997,37.4,29.576457977294922,22.09645797729492,61.206095525893446,14.246489249375074,7.179432009820724
2018-04-27T08:13:20.364194,31.232879638671875,27.852083206176758,33.882957458496094,1001.47119140625,ov5647,115/16,129/128,62997,36.9,29.542481422424316,22.162481422424317,58.10369967082153,13.5047201296383,7.179432009820724
2018-04-27T08:13:27.878624,31.323030471801758,27.856250762939453,35.4739875793457,1001.529052734375,ov5647,115/16,129/128,62997,36.9,29.589640617370605,22.209640617370606,60.95171434225695,14.289002202230222,7.179432009820724
2018-04-27T08:13:33.120103,31.30500030517578,27.860416412353516,35.724822998046875,1001.470458984375,ov5647,115/16,129/128,62997,37.4,29.58270835876465,22.102708358764648,61.717354354271016,14.3814505352277,7.179432009820724
2018-04-27T08:13:40.633744,31.395153045654297,27.866666793823242,35.835906982421875,1001.49755859375,ov5647,115/16,129/128,62997,36.9,29.63090991973877,22.25090991973877,61.669034297861316,14.509675123860916,7.179432009820724
2018-04-27T08:13:48.149992,31.35909080505371,27.870834350585938,35.59223937988281,1001.545166015625,ov5647,115/16,129/128,62997,36.9,29.614962577819824,22.234962577819825,61.18558831034836,14.372373854329595,7.179432009820724
2018-04-27T08:13:53.390276,31.214847564697266,27.87291717529297,35.38798522949219,1001.5,ov5647,115/16,129/128,62997,37.9,29.543882369995117,21.96388236999512,61.34174523940703,14.155313694902617,7.179432009820724
2018-04-27T08:14:00.910006,31.323030471801758,27.883333206176758,35.49190139770508,1001.5478515625,ov5647,115/16,129/128,62997,37.4,29.603181838989258,22.123181838989257,61.30480951391477,14.296774515211268,7.179432009820724
2018-04-27T08:14:08.422086,31.323030471801758,27.87708282470703,35.38798522949219,1001.5361328125,ov5647,115/16,129/128,62997,36.9,29.600056648254395,22.220056648254396,60.76640786691178,14.251640258938465,7.179432009820724
2018-04-27T08:14:13.663039,31.341060638427734,27.891666412353516,35.6173210144043,1001.489990234375,ov5647,115/16,129/128,62997,36.9,29.616363525390625,22.236363525390626,61.15981044226939,14.36716035118161,7.179432009820724
2018-04-27T08:14:21.175989,31.341060638427734,27.897916793823242,35.348567962646484,1001.521240234375,ov5647,115/16,129/128,62997,36.9,29.61948871612549,22.23948871612549,60.690129184511854,14.250541843017515,7.179432009820724
2018-04-27T08:14:28.691840,31.323030471801758,27.897916793823242,35.470401763916016,1001.486572265625,ov5647,115/16,129/128,62997,37.4,29.6104736328125,22.1304736328125,61.240689975359054,14.287446003049297,7.179432009820724
2018-04-27T08:14:33.930297,31.41318130493164,27.90625,35.5062370300293,1001.52783203125,ov5647,115/16,129/128,62997,37.9,29.65971565246582,22.079715652465822,61.811363461218725,14.383292320839402,7.179432009820724
2018-04-27T08:14:41.444901,31.30500030517578,27.914583206176758,35.67823791503906,1001.534423828125,ov5647,115/16,129/128,62997,37.4,29.60979175567627,22.12979175567627,61.5356768815036,14.36134919686333,7.179432009820724
2018-04-27T08:14:48.959534,31.341060638427734,27.910415649414062,35.65673828125,1001.50537109375,ov5647,115/16,129/128,62997,37.4,29.6257381439209,22.145738143920898,61.56640833395301,14.384199672858827,7.179432009820724
2018-04-27T08:14:54.201179,31.323030471801758,27.914583206176758,35.30198287963867,1001.49658203125,ov5647,115/16,129/128,62997,37.9,29.618806838989258,22.03880683898926,61.29410809481768,14.21419878134948,7.179432009820724
2018-04-27T08:15:01.716352,31.43121337890625,27.912500381469727,35.31631851196289,1001.525634765625,ov5647,115/16,129/128,62997,37.9,29.67185688018799,22.09185688018799,61.50127910419899,14.316750295918325,7.179432009820724
2018-04-27T08:15:09.228610,31.286970138549805,27.927082061767578,35.4739875793457,1001.55078125,ov5647,117/16,135/128,62997,36.9,29.60702610015869,22.227026100158692,60.761133525993486,14.256885264326726,6.743075268483092
2018-04-27T08:15:14.469226,31.323030471801758,27.927082061767578,35.27690124511719,1001.535400390625,ov5647,117/16,135/128,62997,37.4,29.625056266784668,22.145056266784668,60.85489219144329,14.203264356115284,6.743075268483092
2018-04-27T08:15:21.981124,31.377120971679688,27.924999237060547,35.67823791503906,1001.497314453125,ov5647,117/16,135/128,62997,37.4,29.651060104370117,22.171060104370117,61.63562021597942,14.425624009323215,6.743075268483092
2018-04-27T08:15:29.493640,31.323030471801758,27.929166793823242,35.366485595703125,1001.50927734375,ov5647,117/16,135/128,62997,37.9,29.6260986328125,22.0460986328125,61.37792899276572,14.242287775009757,6.743075268483092
2018-04-27T08:15:34.729407,31.323030471801758,27.9375,35.3127326965332,1001.517333984375,ov5647,119/16,131/128,62997,37.4,29.63026523590088,22.15026523590088,60.89688528191157,14.218883120227488,6.832181273057312
2018-04-27T08:15:42.231903,31.449241638183594,27.93958282470703,35.55282211303711,1001.509765625,ov5647,125/16,135/128,62997,37.9,29.694412231445312,22.114412231445314,61.88884633550571,14.435617652910352,6.311518451300173
2018-04-27T08:15:49.731289,31.41318130493164,27.93958282470703,35.57432174682617,1001.51806640625,ov5647,127/16,33/32,62997,37.9,29.676382064819336,22.096382064819338,61.86603200854852,14.412807783143592,6.353309106757959
2018-04-27T08:15:54.961956,31.395153045654297,27.943750381469727,35.495487213134766,1001.509765625,ov5647,127/16,33/32,62997,37.9,29.66945171356201,22.089451713562013,61.692216273702584,14.362569782982092,6.353309106757959
2018-04-27T08:16:02.470527,31.449241638183594,27.950000762939453,35.75707244873047,1001.515380859375,ov5647,127/16,93/64,62997,37.4,29.699621200561523,22.219621200561523,61.84353485529138,14.52393377229258,4.508800011247584
2018-04-27T08:16:09.982649,31.35909080505371,27.950000762939453,36.774757385253906,1001.504638671875,ov5647,29/4,139/128,62997,36.9,29.654545783996582,22.274545783996583,63.05096456109741,14.876887096342017,6.6054870916454
2018-04-27T08:16:15.219950,31.341060638427734,27.954166412353516,35.25181579589844,1001.5546875,ov5647,29/4,139/128,62997,37.9,29.647613525390625,22.067613525390627,61.16338227263689,14.208368739772368,6.6054870916454
2018-04-27T08:16:22.735530,31.43121337890625,27.964584350585938,35.04756164550781,1001.547119140625,ov5647,29/4,139/128,62997,36.9,29.697898864746094,22.317898864746095,60.200868671475405,14.199189555811557,6.6054870916454
2018-04-27T08:16:30.250234,31.30500030517578,27.96666717529297,35.49190139770508,1001.532958984375,ov5647,29/4,139/128,62997,36.9,29.635833740234375,22.255833740234376,60.747764471723485,14.280715146610262,6.6054870916454
2018-04-27T08:16:35.488595,31.43121337890625,27.964584350585938,35.2733154296875,1001.51171875,ov5647,29/4,139/128,62997,37.4,29.697898864746094,22.217898864746093,60.956344032611845,14.297992431886172,6.6054870916454
2018-04-27T08:16:43.003297,31.395153045654297,27.983333587646484,35.26973342895508,1001.544189453125,ov5647,29/4,139/128,62997,36.9,29.68924331665039,22.30924331665039,60.48631983045952,14.264332701413721,6.6054870916454
2018-04-27T08:16:50.514410,31.35909080505371,27.985416412353516,35.55640411376953,1001.5888671875,ov5647,29/4,139/128,62997,37.4,29.672253608703613,22.192253608703613,61.28387164744144,14.356857276498943,6.6054870916454
2018-04-27T08:16:55.753797,31.449241638183594,27.983333587646484,35.55282211303711,1001.560546875,ov5647,29/4,139/128,62997,37.9,29.71628761291504,22.13628761291504,61.80628792931613,14.435617652910352,6.6054870916454
2018-04-27T08:17:03.277060,31.41318130493164,27.993749618530273,35.366485595703125,1001.554931640625,ov5647,115/16,35/32,62997,37.9,29.703465461730957,22.12346546173096,61.405709434807946,14.322553083671707,6.615333780477666
2018-04-27T08:17:10.791739,31.41318130493164,27.989582061767578,35.18014907836914,1001.570556640625,ov5647,115/16,35/32,62997,37.4,29.70138168334961,22.22138168334961,60.72074592688808,14.241239357308558,6.615333780477666
2018-04-27T08:17:16.036206,31.503334045410156,27.995834350585938,35.26973342895508,1001.5625,ov5647,63/8,91/64,62997,37.4,29.749584197998047,22.269584197998046,61.01032829039745,14.360621798846125,4.644465108393966
2018-04-27T08:17:23.550275,31.449241638183594,27.99791717529297,35.39873504638672,1001.525634765625,ov5647,63/8,91/64,62997,36.9,29.72357940673828,22.343579406738282,60.76736937768238,14.368697434076608,4.644465108393966
2018-04-27T08:17:31.060696,31.503334045410156,28.008333206176758,35.31631851196289,1001.559326171875,ov5647,29/4,137/128,62997,37.9,29.755833625793457,22.17583362579346,61.44061018661668,14.380952429781289,6.701917560136574
2018-04-27T08:17:36.300990,31.53939437866211,28.010417938232422,35.11922836303711,1001.53076171875,ov5647,29/4,137/128,62997,37.4,29.774906158447266,22.294906158447265,60.78378609171525,14.326858647178241,6.701917560136574
2018-04-27T08:17:43.818036,31.467273712158203,28.020832061767578,35.377235412597656,1001.54638671875,ov5647,115/16,69/64,62997,37.9,29.74405288696289,22.164052886962892,61.46277292206792,14.375395161542315,6.711208183093284
2018-04-27T08:17:51.330319,31.485301971435547,28.024999618530273,35.5062370300293,1001.560791015625,ov5647,115/16,69/64,62997,37.9,29.75515079498291,22.175150794982912,61.7072465789145,14.447532673896276,6.711208183093284
2018-04-27T08:17:56.569488,31.503334045410156,28.020832061767578,35.56715393066406,1001.546875,ov5647,115/16,69/64,62997,37.9,29.762083053588867,22.18208305358887,61.850123678299205,14.490020203095781,6.711208183093284
2018-04-27T08:18:04.081414,31.467273712158203,28.027084350585938,35.463233947753906,1001.57861328125,ov5647,115/16,69/64,62997,37.4,29.74717903137207,22.26717903137207,61.224767929193305,14.41279997590884,6.711208183093284
2018-04-27T08:18:11.591905,31.503334045410156,28.03333282470703,35.39873504638672,1001.55224609375,ov5647,115/16,69/64,62997,37.9,29.768333435058594,22.188333435058595,61.535974257803936,14.416863188492812,6.711208183093284
2018-04-27T08:18:16.827442,31.41318130493164,28.041667938232422,35.03681182861328,1001.5400390625,ov5647,115/16,69/64,62997,37.4,29.72742462158203,22.24742462158203,60.379189280629696,14.178432854469222,6.711208183093284
2018-04-27T08:18:24.330075,31.341060638427734,28.039583206176758,35.25539779663086,1001.54296875,ov5647,115/16,69/64,62997,37.9,29.690321922302246,22.110321922302248,61.01027698995598,14.20993189507439,6.711208183093284
2018-04-27T08:18:31.827980,31.485301971435547,28.047916412353516,35.11564636230469,1001.612548828125,ov5647,115/16,69/64,62997,37.9,29.76660919189453,22.186609191894533,60.99083963096818,14.27716532988127,6.711208183093284
2018-04-27T08:18:37.058272,31.53939437866211,28.049999237060547,35.22673034667969,1001.557861328125,ov5647,115/16,69/64,62997,37.4,29.794696807861328,22.314696807861328,60.89495186191984,14.373925576934411,6.711208183093284
2018-04-27T08:18:44.568704,31.467273712158203,28.054166793823242,35.40231704711914,1001.572998046875,ov5647,115/16,69/64,62997,37.4,29.760720252990723,22.280720252990722,61.069937428421554,14.386312556966189,6.711208183093284
2018-04-27T08:18:52.081460,31.53939437866211,28.0625,35.29123306274414,1001.55126953125,ov5647,115/16,69/64,62997,37.4,29.800947189331055,22.320947189331054,60.982388410884205,14.402106108666132,6.711208183093284
2018-04-27T08:18:57.320146,31.467273712158203,28.066665649414062,35.26973342895508,1001.565185546875,ov5647,115/16,69/64,62997,37.9,29.766969680786133,22.186969680786135,61.19178805911216,14.32852543303531,6.711208183093284
2018-04-27T08:19:04.833908,31.485301971435547,28.066665649414062,35.56715393066406,1001.580810546875,ov5647,115/16,69/64,62997,37.4,29.775983810424805,22.295983810424804,61.35854446556224,14.473955360310555,6.711208183093284
2018-04-27T08:19:12.344941,31.521364212036133,28.077083587646484,35.01172637939453,1001.595947265625,ov5647,115/16,69/64,62997,36.9,29.79922389984131,22.41922389984131,60.07954212995427,14.263630367746131,6.711208183093284
2018-04-27T08:19:17.582189,31.485301971435547,28.072917938232422,35.43098449707031,1001.575927734375,ov5647,29/4,17/16,62997,37.9,29.779109954833984,22.199109954833986,61.487512258646774,14.414837090178068,6.751196365725814
2018-04-27T08:19:25.093684,31.575454711914062,28.079166412353516,35.058311462402344,1001.57763671875,ov5647,29/4,17/16,62997,37.9,29.82731056213379,22.24731056213379,60.98146130191211,14.332206751911002,6.751196365725814
2018-04-27T08:19:32.597413,31.521364212036133,28.089584350585938,35.40231704711914,1001.560546875,ov5647,29/4,17/16,62997,37.9,29.805474281311035,22.225474281311037,61.46642935620131,14.434477153786915,6.751196365725814
2018-04-27T08:19:37.825923,31.395153045654297,28.089584350585938,35.02248001098633,1001.6142578125,ov5647,29/4,17/16,62997,37.9,29.742368698120117,22.16236869812012,60.60591094043837,14.156106717455629,6.751196365725814
2018-04-27T08:19:45.324086,31.521364212036133,28.09166717529297,35.28765106201172,1001.575439453125,ov5647,29/4,17/16,62997,37.9,29.80651569366455,22.226515693664552,61.26493987698658,14.384493266748322,6.751196365725814
2018-04-27T08:19:52.833300,31.53939437866211,28.09166717529297,35.41665267944336,1001.575927734375,ov5647,29/4,17/16,62997,37.4,29.81553077697754,22.33553077697754,61.14313010981619,14.456771800113145,6.751196365725814
2018-04-27T08:19:58.071568,31.557424545288086,28.09375,35.3449821472168,1001.603271484375,ov5647,63/8,19/16,62997,37.4,29.825587272644043,22.345587272644043,61.04601409709045,14.441606071633785,5.561135853471723
2018-04-27T08:20:05.584526,31.521364212036133,28.09375,35.43098449707031,1001.585205078125,ov5647,63/8,389/256,62997,37.4,29.807557106018066,22.327557106018066,61.13417315061329,14.446951404062531,4.345977633561449
2018-04-27T08:20:13.103091,31.53939437866211,28.102083206176758,35.44890213012695,1001.5595703125,ov5647,29/4,135/128,62997,37.4,29.820738792419434,22.340738792419433,61.178972344843075,14.470800742330454,6.801205227694153
2018-04-27T08:20:18.341900,31.53939437866211,28.104167938232422,35.230316162109375,1001.568603515625,ov5647,57/8,137/128,62997,37.4,29.821781158447266,22.341781158447265,60.800651958145515,14.375493365256204,6.819495061191601
2018-04-27T08:20:25.857707,31.485301971435547,28.106250762939453,35.112064361572266,1001.563720703125,ov5647,57/8,137/128,62997,37.4,29.7957763671875,22.3157763671875,60.50617026065679,14.275595279949783,6.819495061191601
2018-04-27T08:20:33.373020,31.521364212036133,28.104167938232422,35.26973342895508,1001.6025390625,ov5647,57/8,137/128,62997,37.4,29.812766075134277,22.332766075134277,60.83868037842588,14.376669981751533,6.819495061191601
2018-04-27T08:20:38.613328,31.557424545288086,28.108333587646484,35.28765106201172,1001.577880859375,ov5647,57/8,137/128,62997,37.9,29.832879066467285,22.252879066467287,61.29314233444848,14.416591441354683,6.819495061191601
2018-04-27T08:20:46.124382,31.557424545288086,28.12708282470703,34.97230911254883,1001.588623046875,ov5647,57/8,137/128,62997,36.9,29.84225368499756,22.46225368499756,59.97924078830804,14.278362717503768,6.819495061191601
2018-04-27T08:20:53.638925,31.53939437866211,28.12708282470703,35.104896545410156,1001.60693359375,ov5647,57/8,137/128,62997,37.4,29.83323860168457,22.35323860168457,60.543511915610296,14.320574315375737,6.819495061191601
2018-04-27T08:20:58.878187,31.467273712158203,28.131250381469727,35.42382049560547,1001.560302734375,ov5647,57/8,137/128,62997,36.9,29.799262046813965,22.419262046813966,60.5930098979701,14.395667072194556,6.819495061191601
2018-04-27T08:21:06.389453,31.59348487854004,28.133333206176758,35.323482513427734,1001.564697265625,ov5647,57/8,137/128,62997,37.4,29.8634090423584,22.383409042358398,60.99469584049751,14.464331330018709,6.819495061191601
2018-04-27T08:21:13.900561,31.611515045166016,28.143749237060547,35.15864562988281,1001.58251953125,ov5647,29/4,67/64,62997,37.9,29.87763214111328,22.297632141113283,61.09349672930095,14.408301351574423,6.851960490587392
2018-04-27T08:21:19.133963,31.683635711669922,28.145832061767578,35.29123306274414,1001.63232421875,ov5647,113/16,137/128,62997,37.9,29.91473388671875,22.33473388671875,61.43703269741575,14.530500253126363,6.879844575007456
2018-04-27T08:21:26.636664,31.503334045410156,28.152084350585938,35.23748016357422,1001.583984375,ov5647,29/4,269/256,62997,36.9,29.827709197998047,22.447709197998048,60.29685998388609,14.346532080291468,6.8264885185034245
2018-04-27T08:21:34.132903,31.575454711914062,28.147916793823242,35.248233795166016,1001.588134765625,ov5647,63/8,343/256,62997,37.4,29.861685752868652,22.381685752868652,60.809219650137706,14.415419406316275,4.928820115030332
2018-04-27T08:21:39.369643,31.665607452392578,28.152084350585938,35.086978912353516,1001.597412109375,ov5647,63/8,389/256,62997,37.9,29.908845901489258,22.32884590148926,61.042957101345465,14.424988731314855,4.345977633561449
2018-04-27T08:21:46.880962,31.665607452392578,28.166667938232422,34.99739456176758,1001.5859375,ov5647,63/8,91/64,62997,37.4,29.9161376953125,22.4361376953125,60.49152699191217,14.385606670846727,4.644465108393966
2018-04-27T08:21:54.392267,31.611515045166016,28.15416717529297,35.10847854614258,1001.603271484375,ov5647,119/16,275/256,62997,37.9,29.882841110229492,22.302841110229494,60.98760822596551,14.386305292056704,6.5092054310582395
2018-04-27T08:21:59.631856,31.64757537841797,28.166667938232422,35.441734313964844,1001.637939453125,ov5647,63/8,1,62997,37.9,29.907121658325195,22.327121658325197,61.59828845136596,14.564024700914771,6.6038488259976695
2018-04-27T08:22:07.149536,31.575454711914062,28.174999237060547,34.846893310546875,1001.573974609375,ov5647,127/16,1,62997,36.9,29.875226974487305,22.495226974487306,59.707535392074575,14.239110692906635,6.5518500163441455
2018-04-27T08:22:14.663979,31.683635711669922,28.168750762939453,35.29840087890625,1001.579345703125,ov5647,63/8,301/256,62997,37.9,29.926193237304688,22.34619323730469,61.406521525795675,14.533631903959005,5.616562456662471
2018-04-27T08:22:19.903570,31.53939437866211,28.18541717529297,35.03322982788086,1001.62255859375,ov5647,63/8,301/256,62997,37.9,29.86240577697754,22.28240577697754,60.68227955256871,14.289115590146821,5.616562456662471
2018-04-27T08:22:27.416890,31.59348487854004,28.18541717529297,35.248233795166016,1001.613037109375,ov5647,123/16,133/128,62997,37.9,29.889451026916504,22.309451026916506,61.140666971382394,14.431466503490583,6.510598072357139
2018-04-27T08:22:34.931838,31.629545211791992,28.202083587646484,35.459651947021484,1001.591064453125,ov5647,59/8,17/16,62997,37.4,29.91581439971924,22.435814399719238,61.159229233900334,14.555763318382972,6.636769308679614
2018-04-27T08:22:40.171474,31.665607452392578,28.200000762939453,35.348567962646484,1001.626708984375,ov5647,31/4,1,62997,36.9,29.932804107666016,22.552804107666017,60.66158454331549,14.539484103008562,6.710362516739568
2018-04-27T08:22:47.684783,31.629545211791992,28.204166412353516,35.14073181152344,1001.606689453125,ov5647,63/8,285/256,62997,37.4,29.916855812072754,22.436855812072753,60.609377467979755,14.416491744012276,5.931878243703171
2018-04-27T08:22:55.198561,31.719696044921875,28.212499618530273,35.348567962646484,1001.6064453125,ov5647,63/8,285/256,62997,37.4,29.966097831726074,22.486097831726074,61.097444810611876,14.587638882204303,5.931878243703171
2018-04-27T08:23:00.440059,31.737728118896484,28.22083282470703,35.341400146484375,1001.63037109375,ov5647,127/16,131/128,62997,37.4,29.979280471801758,22.499280471801757,61.09921765868589,14.600563894577647,6.401807649557639
2018-04-27T08:23:07.951720,31.665607452392578,28.21666717529297,35.19089889526367,1001.5869140625,ov5647,127/16,273/256,62997,36.9,29.941137313842773,22.561137313842774,60.362367211173805,14.470562784447367,6.143859355985719
2018-04-27T08:23:15.464078,31.755756378173828,28.227083206176758,35.3843994140625,1001.6494140625,ov5647,127/16,71/64,62997,37.9,29.991419792175293,22.411419792175295,61.564679495251696,14.635377579711303,5.90589297247923
2018-04-27T08:23:20.701039,31.665607452392578,28.225000381469727,35.22673034667969,1001.592529296875,ov5647,127/16,131/128,62997,37.9,29.945303916931152,22.365303916931154,61.14825822547285,14.486249349081845,6.401807649557639
2018-04-27T08:23:28.208462,31.773788452148438,28.229167938232422,35.241065979003906,1001.634033203125,ov5647,119/16,269/256,62997,37.9,30.00147819519043,22.42147819519043,61.342920485274,14.58880181137826,6.654392169297456
2018-04-27T08:23:35.706460,31.791818618774414,28.241666793823242,35.40231704711914,1001.638671875,ov5647,29/4,275/256,62997,37.9,30.016742706298828,22.43674270629883,61.62781728376583,14.675301836278877,6.6775469508269865
2018-04-27T08:23:40.937624,31.70166778564453,28.243749618530273,35.4345703125,1001.5888671875,ov5647,29/4,275/256,62997,37.9,29.972708702087402,22.392708702087404,61.5307140646552,14.609077679662335,6.6775469508269865
2018-04-27T08:23:48.442077,31.719696044921875,28.24791717529297,35.112064361572266,1001.611083984375,ov5647,29/4,275/256,62997,37.9,29.983806610107422,22.403806610107424,60.99662385824877,14.484119669507024,6.6775469508269865
2018-04-27T08:23:55.952609,31.611515045166016,28.25,35.25181579589844,1001.61669921875,ov5647,29/4,275/256,62997,36.9,29.930757522583008,22.55075752258301,60.3169923196751,14.449079608940721,6.6775469508269865
2018-04-27T08:24:01.192625,31.70166778564453,28.258333206176758,35.51698684692383,1001.618896484375,ov5647,29/4,275/256,62997,37.4,29.980000495910645,22.500000495910644,61.27113984544139,14.644929215348526,6.6775469508269865
2018-04-27T08:24:08.708884,31.64757537841797,28.254165649414062,35.49190139770508,1001.60546875,ov5647,29/4,275/256,62997,37.9,29.950870513916016,22.370870513916017,61.52061167037948,14.585844848894808,6.6775469508269865
2018-04-27T08:24:16.221261,31.719696044921875,28.262500762939453,35.43815231323242,1001.6376953125,ov5647,29/4,275/256,62997,37.9,29.991098403930664,22.411098403930666,61.53150468734101,14.626692350292473,6.6775469508269865
2018-04-27T08:24:21.461493,31.719696044921875,28.268749237060547,35.212398529052734,1001.6728515625,ov5647,29/4,275/256,62997,37.4,29.99422264099121,22.51422264099121,60.75970737096617,14.528110894555496,6.6775469508269865
2018-04-27T08:24:28.976441,31.719696044921875,28.268749237060547,35.52773666381836,1001.629150390625,ov5647,29/4,275/256,62997,37.9,29.99422264099121,22.414222640991213,61.674148827602636,14.665659530623614,6.6775469508269865
2018-04-27T08:24:36.488699,31.70166778564453,28.272916793823242,34.814640045166016,1001.61474609375,ov5647,29/4,275/256,62997,37.4,29.987292289733887,22.507292289733886,60.0417274648393,14.337042063777304,6.6775469508269865
2018-04-27T08:24:41.729287,31.737728118896484,28.277084350585938,34.803890228271484,1001.6318359375,ov5647,29/4,275/256,62997,37.9,30.00740623474121,22.427406234741213,60.440799019723855,14.364336651662626,6.6775469508269865
2018-04-27T08:24:49.240786,31.611515045166016,28.28125,34.592472076416016,1001.6513671875,ov5647,29/4,275/256,62997,37.9,29.946382522583008,22.36638252258301,59.86558587579631,14.158448531518218,6.6775469508269865
2018-04-27T08:24:56.750375,31.737728118896484,28.287500381469727,35.03681182861328,1001.6376953125,ov5647,29/4,275/256,62997,37.4,30.012614250183105,22.532614250183105,60.45373354368826,14.467091256351637,6.6775469508269865
2018-04-27T08:25:01.987277,31.64757537841797,28.28125,34.932891845703125,1001.638427734375,ov5647,29/4,275/256,62997,37.9,29.964412689208984,22.384412689208986,60.50886885278939,14.341163257026594,6.6775469508269865
2018-04-27T08:25:09.488836,31.70166778564453,28.28333282470703,35.215980529785156,1001.634521484375,ov5647,29/4,275/256,62997,37.9,29.99250030517578,22.412500305175783,61.08029088517544,14.5136356138173,6.6775469508269865
2018-04-27T08:25:16.995378,31.683635711669922,28.291667938232422,34.90064239501953,1001.66357421875,ov5647,29/4,275/256,62997,38.5,29.987651824951172,22.287651824951173,60.936797086828676,14.359002143549105,6.6775469508269865
2018-04-27T08:25:22.222367,31.665607452392578,28.293750762939453,35.26973342895508,1001.6279296875,ov5647,29/4,275/256,62997,37.9,29.979679107666016,22.399679107666017,61.09426448132547,14.505057142676208,6.6775469508269865
2018-04-27T08:25:29.731087,31.70166778564453,28.289583206176758,35.2016487121582,1001.626953125,ov5647,29/4,275/256,62997,38.5,29.995625495910645,22.295625495910645,61.49198732254349,14.507359873024498,6.6775469508269865
2018-04-27T08:25:37.240771,31.791818618774414,28.299999237060547,35.545654296875,1001.649169921875,ov5647,29/4,275/256,62997,37.9,30.04590892791748,22.465908927917482,61.76567467498033,14.737692941534334,6.6775469508269865
2018-04-27T08:25:42.488157,31.737728118896484,28.299999237060547,34.836143493652344,1001.6357421875,ov5647,29/4,275/256,62997,37.9,30.018863677978516,22.438863677978517,60.45418482299741,14.3786011775898,6.6775469508269865
2018-04-27T08:25:50.002995,31.719696044921875,28.295833587646484,35.42382049560547,1001.64111328125,ov5647,29/4,275/256,62997,37.9,30.00776481628418,22.42776481628418,61.444405373294884,14.620450335727071,6.6775469508269865
2018-04-27T08:25:57.513444,31.719696044921875,28.302082061767578,35.076229095458984,1001.675537109375,ov5647,29/4,275/256,62997,37.9,30.010889053344727,22.43088905334473,60.834398067917526,14.468381140061126,6.6775469508269865
2018-04-27T08:26:02.752959,31.755756378173828,28.316665649414062,34.74297332763672,1001.64013671875,ov5647,29/4,275/256,62997,37.9,30.036211013793945,22.456211013793947,60.29226718097986,14.353383307246602,6.6775469508269865
2018-04-27T08:26:10.268107,31.827878952026367,28.31041717529297,34.97947692871094,1001.622802734375,ov5647,29/4,275/256,62997,37.9,30.069148063659668,22.48914806365967,60.82867625156321,14.52202062218231,6.6775469508269865
2018-04-27T08:26:17.780554,31.773788452148438,28.31458282470703,34.87914276123047,1001.631591796875,ov5647,29/4,275/256,62997,36.9,30.044185638427734,22.664185638427735,59.8272399231323,14.429657068298852,6.6775469508269865
2018-04-27T08:26:23.019867,31.70166778564453,28.3125,34.940059661865234,1001.632568359375,ov5647,29/4,275/256,62997,37.9,30.007083892822266,22.427083892822267,60.551469361563036,14.392418373119327,6.6775469508269865
2018-04-27T08:26:30.533174,31.773788452148438,28.316665649414062,34.91497802734375,1001.628173828125,ov5647,29/4,275/256,62997,37.9,30.04522705078125,22.46522705078125,60.61783046894682,14.44547882380553,6.6775469508269865
2018-04-27T08:26:38.044412,31.737728118896484,28.322917938232422,35.30915069580078,1001.640869140625,ov5647,29/4,275/256,62997,38.5,30.030323028564453,22.330323028564454,61.67531170307168,14.586479717832944,6.6775469508269865
2018-04-27T08:26:43.281702,31.719696044921875,28.322917938232422,34.968727111816406,1001.608154296875,ov5647,29/4,275/256,62997,37.9,30.02130699157715,22.44130699157715,60.61087221820116,14.42108267120463,6.6775469508269865
2018-04-27T08:26:50.790101,31.827878952026367,28.322917938232422,35.02606201171875,1001.683837890625,ov5647,29/4,275/256,62997,37.4,30.075398445129395,22.595398445129394,60.51646463969625,14.542541309886388,6.6775469508269865
2018-04-27T08:26:58.289906,31.845909118652344,28.333332061767578,35.02248001098633,1001.671142578125,ov5647,29/4,275/256,62997,37.9,30.08962059020996,22.509620590209963,60.889847292604124,14.556999951032367,6.6775469508269865
2018-04-27T08:27:03.516015,31.755756378173828,28.329166412353516,35.15506362915039,1001.640380859375,ov5647,29/4,275/256,62997,37.9,30.042461395263672,22.462461395263674,60.978800853888536,14.53507079554879,6.6775469508269865
2018-04-27T08:27:11.021276,31.773788452148438,28.337499618530273,34.9293098449707,1001.620361328125,ov5647,29/4,275/256,62997,37.9,30.055644035339355,22.475644035339357,60.60407074681372,14.451802538032922,6.6775469508269865
2018-04-27T08:27:18.533180,31.845909118652344,28.337499618530273,36.3125,1001.70361328125,ov5647,29/4,275/256,62997,37.9,30.09170436859131,22.51170436859131,63.107554575558524,15.116089658422311,6.6775469508269865
2018-04-27T08:27:23.775176,31.683635711669922,28.327083587646484,34.95439529418945,1001.6611328125,ov5647,29/4,275/256,62997,37.4,30.005359649658203,22.525359649658203,60.15250531928709,14.382702983438506,6.6775469508269865
2018-04-27T08:27:31.285023,31.719696044921875,28.34166717529297,34.99739456176758,1001.65087890625,ov5647,29/4,275/256,62997,37.9,30.030681610107422,22.450681610107424,60.62556551750738,14.433708135002021,6.6775469508269865
2018-04-27T08:27:38.799469,31.845909118652344,28.337499618530273,34.950809478759766,1001.727294921875,ov5647,29/4,275/256,62997,37.4,30.09170436859131,22.611704368591308,60.389832885116256,14.525412764726866,6.6775469508269865
2018-04-27T08:27:44.039691,31.773788452148438,28.34166717529297,35.03681182861328,1001.66162109375,ov5647,29/4,273/256,62997,37.4,30.057727813720703,22.577727813720703,60.41262278698449,14.49916403513106,6.726466708708502
2018-04-27T08:27:51.553235,31.737728118896484,28.339584350585938,35.16939926147461,1001.68505859375,ov5647,29/4,273/256,62997,37.9,30.03865623474121,22.458656234741213,60.95464728677008,14.525316246042777,6.726466708708502
2018-04-27T08:27:59.066471,31.737728118896484,28.34375,35.14431381225586,1001.6748046875,ov5647,29/4,273/256,62997,37.9,30.040739059448242,22.460739059448244,60.90376925251408,14.514314867771105,6.726466708708502
2018-04-27T08:28:04.306470,31.773788452148438,28.358333587646484,34.728641510009766,1001.666015625,ov5647,29/4,273/256,62997,37.9,30.06606101989746,22.486061019897463,60.22028881410223,14.363053028488594,6.726466708708502
2018-04-27T08:28:11.814052,31.755756378173828,28.352083206176758,34.63547134399414,1001.717041015625,ov5647,29/4,273/256,62997,37.9,30.053919792175293,22.473919792175295,60.04231386954755,14.305676469524414,6.726466708708502
2018-04-27T08:28:19.319984,31.881969451904297,28.347915649414062,34.71788787841797,1001.6904296875,ov5647,29/4,273/256,62997,37.9,30.11494255065918,22.53494255065918,60.39579722256323,14.454405145121754,6.726466708708502
2018-04-27T08:28:24.549093,31.80984878540039,28.364582061767578,35.09772872924805,1001.736083984375,ov5647,29/4,273/256,62997,37.9,30.087215423583984,22.507215423583986,60.90277820238351,14.558024373750726,6.726466708708502
2018-04-27T08:28:32.049043,31.845909118652344,28.358333587646484,35.2338981628418,1001.655029296875,ov5647,29/4,273/256,62997,37.9,30.102121353149414,22.522121353149416,61.20805924918199,14.649849383163883,6.726466708708502
2018-04-27T08:28:39.556721,31.827878952026367,28.362499237060547,35.01531219482422,1001.695068359375,ov5647,29/4,273/256,62997,37.9,30.095189094543457,22.51518909454346,60.7940694253396,14.537808145573479,6.726466708708502
2018-04-27T08:28:44.792730,31.791818618774414,28.354167938232422,34.814640045166016,1001.665283203125,ov5647,29/4,273/256,62997,37.9,30.072993278503418,22.49299327850342,60.40515767040247,14.417167444121617,6.726466708708502
2018-04-27T08:28:52.305824,31.773788452148438,28.358333587646484,34.79314041137695,1001.669677734375,ov5647,115/16,275/256,62997,37.9,30.06606101989746,22.486061019897463,60.33129382545054,14.391627757850145,6.735612576486352
2018-04-27T08:28:59.822215,31.773788452148438,28.370834350585938,35.0009765625,1001.70458984375,ov5647,115/16,275/256,62997,37.9,30.072311401367188,22.49231140136719,60.66588706510687,14.483390454733524,6.735612576486352
2018-04-27T08:29:05.062385,31.737728118896484,28.366666793823242,34.75372314453125,1001.691650390625,ov5647,115/16,275/256,62997,37.9,30.052197456359863,22.472197456359865,60.18990184275283,14.342126447140586,6.735612576486352
2018-04-27T08:29:12.578189,31.900001525878906,28.368749618530273,34.87914276123047,1001.67724609375,ov5647,115/16,275/256,62997,37.9,30.13437557220459,22.55437557220459,60.66504975031021,14.54185733384071,6.735612576486352
2018-04-27T08:29:20.094072,31.755756378173828,28.370834350585938,34.86122512817383,1001.67041015625,ov5647,115/16,275/256,62997,37.9,30.063295364379883,22.483295364379885,60.396242118568566,14.405711707070623,6.735612576486352
2018-04-27T08:29:25.334702,31.773788452148438,28.370834350585938,34.78239059448242,1001.6875,ov5647,115/16,275/256,62997,37.9,30.072311401367188,22.49231140136719,60.289842963756456,14.386868523441905,6.735612576486352
2018-04-27T08:29:32.847127,31.773788452148438,28.375,35.058311462402344,1001.697021484375,ov5647,115/16,275/256,62997,37.9,30.07439422607422,22.49439422607422,60.75681557288423,14.508620737805145,6.735612576486352
2018-04-27T08:29:40.360244,31.86393928527832,28.37291717529297,34.91497802734375,1001.69775390625,ov5647,115/16,275/256,62997,37.9,30.118428230285645,22.538428230285646,60.660560975285016,14.525629789949576,6.735612576486352
2018-04-27T08:29:45.601186,31.845909118652344,28.37708282470703,34.49213409423828,1001.67578125,ov5647,115/16,275/256,62997,37.9,30.111495971679688,22.53149597167969,59.894847927208126,14.321909233058747,6.735612576486352
2018-04-27T08:29:53.114581,31.791818618774414,28.37708282470703,34.74297332763672,1001.71435546875,ov5647,115/16,275/256,62997,37.9,30.084450721740723,22.504450721740724,60.23970396894469,14.385427828526716,6.735612576486352
2018-04-27T08:30:00.626794,31.827878952026367,28.375,34.7393913269043,1001.710693359375,ov5647,115/16,275/256,62997,37.4,30.101439476013184,22.621439476013183,59.92980086250412,14.415882396260557,6.735612576486352
2018-04-27T08:30:05.865160,31.80984878540039,28.37708282470703,34.721473693847656,1001.734130859375,ov5647,115/16,275/256,62997,37.9,30.09346580505371,22.513465805053713,60.2318257029658,14.391915255050336,6.735612576486352
2018-04-27T08:30:13.375173,31.755756378173828,28.37291717529297,34.34880065917969,1001.723876953125,ov5647,115/16,275/256,62997,38.5,30.0643367767334,22.3643367767334,59.94797586533974,14.177822455803906,6.735612576486352
2018-04-27T08:30:20.881564,31.80984878540039,28.375,35.05472946166992,1001.6748046875,ov5647,117/16,269/256,62997,37.9,30.092424392700195,22.512424392700197,60.809436883779824,14.539120130440224,6.7681424627897195
2018-04-27T08:30:26.111753,31.827878952026367,28.370834350585938,35.00814437866211,1001.713134765625,ov5647,127/16,193/128,62997,37.9,30.099356651306152,22.519356651306154,60.76629997607269,14.534651436233574,4.345268404622025
2018-04-27T08:30:33.614740,31.791818618774414,28.37291717529297,34.34163284301758,1001.726806640625,ov5647,121/16,283/256,62997,37.9,30.08236789703369,22.502367897033693,59.556566181765135,14.206616938614701,6.220650869707119
2018-04-27T08:30:41.117374,31.827878952026367,28.379165649414062,34.70713806152344,1001.69482421875,ov5647,127/16,265/256,62997,37.9,30.103522300720215,22.523522300720217,60.23244228506941,14.401574844521434,6.329334355411704
2018-04-27T08:30:46.353612,31.827878952026367,28.37291717529297,34.57096862792969,1001.7099609375,ov5647,63/8,267/256,62997,37.9,30.100398063659668,22.52039806365967,60.00930844226156,14.341041535010078,6.331780147773047
2018-04-27T08:30:53.866086,31.80984878540039,28.383333206176758,34.77880859375,1001.7099609375,ov5647,61/8,275/256,62997,38.5,30.096590995788574,22.396590995788575,60.7614971489639,14.417328880178786,6.3491430024256585
2018-04-27T08:31:01.381887,31.773788452148438,28.385417938232422,34.814640045166016,1001.69482421875,ov5647,61/8,275/256,62997,37.4,30.07960319519043,22.59960319519043,59.95250637471267,14.401142368052774,6.3491430024256585
2018-04-27T08:31:06.622173,31.755756378173828,28.385417938232422,34.549468994140625,1001.70947265625,ov5647,61/8,275/256,62997,37.9,30.070587158203125,22.490587158203127,59.83357477664948,14.267417282857878,6.3491430024256585
2018-04-27T08:31:14.137856,31.737728118896484,28.383333206176758,34.4348030090332,1001.7255859375,ov5647,127/16,257/256,62997,37.9,30.06053066253662,22.480530662536623,59.6114096606737,14.200273007156838,6.526356436514013
2018-04-27T08:31:21.651604,31.80984878540039,28.387500762939453,34.77522277832031,1001.764892578125,ov5647,63/8,257/256,62997,37.9,30.098674774169922,22.518674774169924,60.30523930255575,14.415740546879647,6.578152916168886
2018-04-27T08:31:26.891735,31.791818618774414,28.387500762939453,34.62472152709961,1001.707763671875,ov5647,127/16,1,62997,37.9,30.089659690856934,22.509659690856935,60.01716476767817,14.33293123614763,6.5518500163441455
2018-04-27T08:31:34.407351,31.827878952026367,28.389583587646484,35.04756164550781,1001.7119140625,ov5647,123/16,131/128,62997,37.9,30.108731269836426,22.528731269836427,60.799503006352104,14.552003826545814,6.60999651620992
2018-04-27T08:31:41.922287,31.881969451904297,28.381250381469727,34.814640045166016,1001.715576171875,ov5647,127/16,1,62997,37.9,30.13160991668701,22.551609916687013,60.50143295763891,14.497292824465916,6.5518500163441455
2018-04-27T08:31:47.162039,31.80984878540039,28.397916793823242,34.65338897705078,1001.76171875,ov5647,127/16,1,62997,37.9,30.103882789611816,22.523882789611818,60.07648931233409,14.361689051143074,6.5518500163441455
2018-04-27T08:31:54.681636,31.845909118652344,28.393749237060547,35.04397964477539,1001.715087890625,ov5647,121/16,67/64,62997,37.9,30.119829177856445,22.539829177856447,60.81501901306316,14.56646440610173,6.56882162733998
2018-04-27T08:32:02.191303,31.86393928527832,28.395832061767578,34.75014114379883,1001.73095703125,ov5647,123/16,65/64,62997,37.9,30.12988567352295,22.54988567352295,60.33423064969343,14.4526919933232,6.660842643257688
2018-04-27T08:32:07.434291,31.791818618774414,28.399999618530273,34.80030822753906,1001.739013671875,ov5647,127/16,1,62997,37.4,30.095909118652344,22.615909118652343,59.930434845463964,14.41082477293007,6.5518500163441455
2018-04-27T08:32:14.947689,31.86393928527832,28.399999618530273,35.01889419555664,1001.695068359375,ov5647,127/16,1,62997,36.9,30.131969451904297,22.751969451904298,60.05463925715128,14.571456407024456,6.5518500163441455
2018-04-27T08:32:22.462247,31.881969451904297,28.40833282470703,34.678470611572266,1001.768310546875,ov5647,61/8,133/128,62997,37.9,30.145151138305664,22.565151138305666,60.216920902325036,14.436902524346763,6.563963630327279
2018-04-27T08:32:27.701322,31.791818618774414,28.40625,35.00456237792969,1001.71240234375,ov5647,63/8,1,62997,37.9,30.099034309387207,22.51903430938721,60.63600367374165,14.501004207428451,6.6038488259976695
2018-04-27T08:32:35.216316,31.80984878540039,28.412500381469727,35.215980529785156,1001.706787109375,ov5647,127/16,309/256,62997,37.9,30.11117458343506,22.53117458343506,61.01738514813344,14.609908417604487,5.428069916453402
2018-04-27T08:32:42.731082,31.80984878540039,28.412500381469727,35.15506362915039,1001.715576171875,ov5647,127/16,69/64,62997,37.4,30.11117458343506,22.631174583435058,60.54311378676807,14.583199648744369,6.0770782760293525
2018-04-27T08:32:47.969246,31.881969451904297,28.418750762939453,35.0009765625,1001.721923828125,ov5647,123/16,71/64,62997,37.9,30.150360107421875,22.570360107421877,60.75345266633598,14.579597867880068,6.097954532559855
2018-04-27T08:32:55.483294,31.845909118652344,28.420833587646484,34.79314041137695,1001.738037109375,ov5647,127/16,21/16,62997,37.9,30.133371353149414,22.553371353149416,60.333212483137125,14.455723669552327,4.9918857267383965
2018-04-27T08:33:02.991069,31.719696044921875,28.414583206176758,34.814640045166016,1001.75830078125,ov5647,127/16,39/32,62997,37.4,30.067139625549316,22.587139625549316,59.812360877475044,14.353065444609115,5.375876936487504
2018-04-27T08:33:08.226220,31.80984878540039,28.418750762939453,34.9293098449707,1001.749267578125,ov5647,127/16,329/256,62997,37.4,30.114299774169922,22.63429977416992,60.14575331558058,14.483864384212865,5.098096061349851
2018-04-27T08:33:15.725152,31.845909118652344,28.424999237060547,35.441734313964844,1001.693603515625,ov5647,127/16,77/64,62997,38.5,30.135454177856445,22.435454177856446,61.89207876141033,14.74065172926089,5.445693520078251
2018-04-27T08:33:23.224611,31.954090118408203,28.433334350585938,34.97230911254883,1001.72802734375,ov5647,127/16,343/256,62997,37.9,30.19371223449707,22.613712234497072,60.79449836951195,14.63109286211089,4.890010507825368
2018-04-27T08:33:28.458899,31.881969451904297,28.431249618530273,35.02606201171875,1001.745849609375,ov5647,127/16,343/256,62997,37.9,30.156609535217285,22.576609535217287,60.77355385764691,14.590648840206413,4.890010507825368
2018-04-27T08:33:35.969635,31.900001525878906,28.43541717529297,35.355735778808594,1001.70556640625,ov5647,127/16,81/64,62997,37.9,30.167709350585938,22.58770935058594,61.3631381944994,14.751295409428181,5.176770383284263
2018-04-27T08:33:43.482618,31.881969451904297,28.4375,34.957977294921875,1001.72119140625,ov5647,127/16,171/128,62997,37.9,30.15973472595215,22.57973472595215,60.644770130961604,14.560639133420864,4.904308784164039
2018-04-27T08:33:48.727740,31.845909118652344,28.445833206176758,35.15148162841797,1001.714599609375,ov5647,127/16,19/16,62997,37.9,30.14587116241455,22.565871162414552,60.903581731742996,14.61371228272833,5.5173473821845445
2018-04-27T08:33:56.243377,31.86393928527832,28.445833206176758,34.947227478027344,1001.72119140625,ov5647,127/16,193/128,62997,37.4,30.15488624572754,22.67488624572754,60.21418464422462,14.539864426485977,4.345268404622025
2018-04-27T08:34:03.756389,31.954090118408203,28.454166412353516,34.92572784423828,1001.750244140625,ov5647,127/16,193/128,62997,37.4,30.20412826538086,22.72412826538086,60.30781364922554,14.610529650086619,4.345268404622025
2018-04-27T08:34:08.996606,31.900001525878906,28.452083587646484,34.71430587768555,1001.7119140625,ov5647,127/16,193/128,62997,37.9,30.176042556762695,22.596042556762697,60.22759163155914,14.46883697305691,4.345268404622025
2018-04-27T08:34:16.510582,31.845909118652344,28.454166412353516,34.92572784423828,1001.74169921875,ov5647,127/16,43/32,62997,37.9,30.15003776550293,22.57003776550293,60.500008275112506,14.51434520589973,4.875795361000295
2018-04-27T08:34:24.023270,31.954090118408203,28.458332061767578,35.01889419555664,1001.748291015625,ov5647,15/2,269/256,62997,37.9,30.20621109008789,22.626211090087892,60.82860612357044,14.651633803661937,6.598938901219977
2018-04-27T08:34:29.262690,31.827878952026367,28.462499618530273,34.86839294433594,1001.716552734375,ov5647,59/8,273/256,62997,37.9,30.14518928527832,22.565189285278322,60.356924165108005,14.47299156223103,6.61245879839141
2018-04-27T08:34:36.784903,31.881969451904297,28.464584350585938,35.101314544677734,1001.7294921875,ov5647,59/8,273/256,62997,37.9,30.173276901245117,22.59327690124512,60.841415357016835,14.623758578655114,6.61245879839141
2018-04-27T08:34:44.299199,31.845909118652344,28.462499618530273,35.16581344604492,1001.752197265625,ov5647,59/8,273/256,62997,37.9,30.15420436859131,22.57420436859131,60.89734078103699,14.620001662704837,6.61245879839141
2018-04-27T08:34:49.537622,31.86393928527832,28.475000381469727,35.212398529052734,1001.752197265625,ov5647,59/8,273/256,62997,37.9,30.169469833374023,22.589469833374025,60.98370017178766,14.65647488157515,6.61245879839141
2018-04-27T08:34:57.052485,31.86393928527832,28.46875,35.13356399536133,1001.739501953125,ov5647,59/8,273/256,62997,37.9,30.16634464263916,22.586344642639162,60.85975608634456,14.621887441955991,6.61245879839141
2018-04-27T08:35:04.572476,31.881969451904297,28.475000381469727,34.98664474487305,1001.7314453125,ov5647,59/8,273/256,62997,37.4,30.17848491668701,22.69848491668701,60.25730667797755,14.57328111578596,6.61245879839141
2018-04-27T08:35:09.812681,31.93606185913086,28.477083206176758,35.42382049560547,1001.74853515625,ov5647,59/8,273/256,62997,37.9,30.20657253265381,22.62657253265381,61.461911937752035,14.813125101474867,6.61245879839141
2018-04-27T08:35:17.322702,31.900001525878906,28.475000381469727,35.09772872924805,1001.75341796875,ov5647,59/8,273/256,62997,37.9,30.187500953674316,22.607500953674318,60.845374988809006,14.638223472528807,6.61245879839141
2018-04-27T08:35:24.837987,31.881969451904297,28.487499237060547,35.18014907836914,1001.7646484375,ov5647,59/8,273/256,62997,37.9,30.184734344482422,22.604734344482424,60.93455020515274,14.658377783538697,6.61245879839141
2018-04-27T08:35:30.080193,31.86393928527832,28.483333587646484,34.87556076049805,1001.745361328125,ov5647,59/8,273/256,62997,37.4,30.173636436462402,22.693636436462402,60.02313380996529,14.50821570718854,6.61245879839141
2018-04-27T08:35:37.593869,31.91802978515625,28.491666793823242,34.90781021118164,1001.7333984375,ov5647,59/8,273/256,62997,37.9,30.204848289489746,22.624848289489748,60.517148570727066,14.570553897848583,6.61245879839141
2018-04-27T08:35:45.105899,31.954090118408203,28.485416412353516,35.25898361206055,1001.758056640625,ov5647,59/8,273/256,62997,37.9,30.21975326538086,22.63975326538086,61.19209017608706,14.757119734961464,6.61245879839141
2018-04-27T08:35:50.348114,31.86393928527832,28.483333587646484,34.947227478027344,1001.720458984375,ov5647,59/8,273/256,62997,37.9,30.173636436462402,22.593636436462404,60.512525001622905,14.539864426485977,6.61245879839141
2018-04-27T08:35:57.863601,31.954090118408203,28.487499237060547,35.22673034667969,1001.73583984375,ov5647,59/8,273/256,62997,37.9,30.220794677734375,22.640794677734377,61.13266114478437,14.742985519815065,6.61245879839141
2018-04-27T08:36:05.373796,31.900001525878906,28.487499237060547,34.88631057739258,1001.725341796875,ov5647,59/8,273/256,62997,37.9,30.193750381469727,22.61375038146973,60.458600900998604,14.5450257171575,6.61245879839141
2018-04-27T08:36:10.615128,31.93606185913086,28.495834350585938,35.079811096191406,1001.791015625,ov5647,59/8,273/256,62997,37.9,30.2159481048584,22.6359481048584,60.83478077085546,14.662421209582348,6.61245879839141
2018-04-27T08:36:18.129669,31.93606185913086,28.481250762939453,34.99022674560547,1001.787841796875,ov5647,59/8,273/256,62997,37.9,30.208656311035156,22.628656311035158,60.70750516026213,14.62296385911199,6.61245879839141
2018-04-27T08:36:25.642129,31.954090118408203,28.493749618530273,34.86839294433594,1001.73828125,ov5647,59/8,273/256,62997,37.9,30.22391986846924,22.64391986846924,60.50393027877728,14.5851862954257,6.61245879839141
2018-04-27T08:36:30.880740,31.972122192382812,28.493749618530273,35.094146728515625,1001.74365234375,ov5647,59/8,273/256,62997,37.9,30.232935905456543,22.652935905456545,60.92213764035318,14.700805738904933,6.61245879839141
